<?xml version="1.0" encoding="UTF-8" standalone="no"?>
<svg
   viewBox="0 0 1024 1024"
   version="1.1"
   id="svg6658"
   sodipodi:docname="CodeBranchLight.svg"
   width="1024"
   height="1024"
   inkscape:version="1.2.2 (b0a8486541, 2022-12-01)"
   xmlns:inkscape="http://www.inkscape.org/namespaces/inkscape"
   xmlns:sodipodi="http://sodipodi.sourceforge.net/DTD/sodipodi-0.dtd"
   xmlns="http://www.w3.org/2000/svg"
   xmlns:svg="http://www.w3.org/2000/svg">
  <defs
     id="defs6662" />
  <sodipodi:namedview
     id="namedview6660"
     pagecolor="#ffffff"
     bordercolor="#000000"
     borderopacity="0.25"
     inkscape:showpageshadow="2"
     inkscape:pageopacity="0.0"
     inkscape:pagecheckerboard="0"
     inkscape:deskcolor="#d1d1d1"
     showgrid="false"
     inkscape:zoom="0.289679"
     inkscape:cx="-167.4267"
     inkscape:cy="445.32051"
     inkscape:window-width="1920"
     inkscape:window-height="1011"
     inkscape:window-x="0"
     inkscape:window-y="32"
     inkscape:window-maximized="1"
     inkscape:current-layer="svg6658" />
  <!-- Font Awesome Pro 5.15.4 by @fontawesome - https://fontawesome.com License - https://fontawesome.com/license (Commercial License) -->
  <path
     d="m 895.54999,282.58125 c 0,-86.73675 -70.25283,-156.98959 -156.98958,-156.98959 -86.73674,0 -156.98958,70.25284 -156.98958,156.98959 0,71.43026 47.68559,131.67501 112.83626,150.71 -1.17742,31.59415 -8.24195,55.92753 -21.58607,72.41144 -30.22049,37.6775 -96.74483,43.95708 -167.1939,50.4329 -55.33883,5.10217 -112.64002,10.5968 -159.54066,33.16406 V 306.71839 C 409.86347,286.70222 455.97917,227.24242 455.97917,156.98958 455.97917,70.252838 385.72632,0 298.98958,0 212.25284,0 142,70.252838 142,156.98958 c 0,70.25284 46.11569,129.71264 109.89271,149.72881 V 697.8187 C 188.11569,718.03111 142,777.4909 142,847.74375 c 0,86.73674 70.25284,156.98955 156.98958,156.98955 86.73674,0 156.98959,-70.25281 156.98959,-156.98955 0,-66.72057 -41.60224,-123.82554 -100.47334,-146.39279 6.08335,-10.20432 15.30648,-19.23123 29.23931,-26.29575 31.79039,-16.09143 79.27974,-20.40865 129.71264,-25.11834 82.81201,-7.65324 176.61329,-16.4839 231.95211,-85.16685 27.47318,-34.14524 41.406,-78.10232 42.38719,-133.24491 62.01089,-21.19359 106.75291,-79.86844 106.75291,-148.94386 z M 298.98958,125.59166 c 17.26886,0 31.39792,14.12907 31.39792,31.39792 0,17.26886 -14.12906,31.39792 -31.39792,31.39792 -17.26885,0 -31.39792,-14.12906 -31.39792,-31.39792 0,-17.26885 14.12907,-31.39792 31.39792,-31.39792 z m 0,753.55001 c -17.26885,0 -31.39792,-14.12907 -31.39792,-31.39792 0,-17.26886 14.12907,-31.39792 31.39792,-31.39792 17.26886,0 31.39792,14.12906 31.39792,31.39792 0,17.26885 -14.12906,31.39792 -31.39792,31.39792 z M 738.56041,251.18333 c 17.26885,0 31.39792,14.12906 31.39792,31.39792 0,17.26885 -14.12907,31.39792 -31.39792,31.39792 -17.26885,0 -31.39791,-14.12907 -31.39791,-31.39792 0,-17.26886 14.12906,-31.39792 31.39791,-31.39792 z"
     id="path6656"
     style="stroke-width:1.96237" />
</svg>
